TRUE, line  1
TRUE, line  2
TRUE, line  3
TRUE, line  4
TRUE, line  5
TRUE, line  6
TRUE, line  7
TRUE, line  8
TRUE, line  9
TRUE, line  10
TRUE, line  11
TRUE, line  12
TRUE, line  13
TRUE, line  14
TRUE, line  15
TRUE, line  16
TRUE, line  17
TRUE, line  18
TRUE, line  19
TRUE, line  20
TRUE, line  21
TRUE, line  22
TRUE, line  23
TRUE, line  24
TRUE, line  25
TRUE, line  26
TRUE, line  27
TRUE, line  28
TRUE, line  29
TRUE, line  30
TRUE, line  31
TRUE, line  32
TRUE, line  33
TRUE, line  34
TRUE, line  35
TRUE, line  36
TRUE, line  37
TRUE, line  38
TRUE, line  39
TRUE, line  40
TRUE, line  41
TRUE, line  42
TRUE, line  43
TRUE, line  44
TRUE, line  45
TRUE, line  46
TRUE, line  47
TRUE, line  48
TRUE, line  49
TRUE, line  50
TRUE, line  51
TRUE, line  52
TRUE, line  53
TRUE, line  54
TRUE, line  55
TRUE, line  56
TRUE, line  57
TRUE, line  58
TRUE, line  59
TRUE, line  60
TRUE, line  61
TRUE, line  62
TRUE, line  63
TRUE, line  64
TRUE, line  65
TRUE, line  66
TRUE, line  67
TRUE, line  68
TRUE, line  69
TRUE, line  70
TRUE, line  71
TRUE, line  72
TRUE, line  73
TRUE, line  74
TRUE, line  75
TRUE, line  76
TRUE, line  77
TRUE, line  78
TRUE, line  79
TRUE, line  80
TRUE, line  81
TRUE, line  82
TRUE, line  83
TRUE, line  84
TRUE, line  85
TRUE, line  86
TRUE, line  87
TRUE, line  88
TRUE, line  89
TRUE, line  90
TRUE, line  91
